user_id,preferences
1,"['oracle', 'chrome', 'mac', 'internet']"
2,"['windows', 'google', 'apple', 'internet']"
3,"['chrome', 'mac', 'flash', 'apple', 'ibm']"
4,"['google', 'cisco', 'apple', 'windows', 'android', 'acrobat']"
5,"['microsoft', 'internet']"
6,"['chrome', 'iphone', 'ibm', 'apple']"
7,"['ios', 'ibm', 'apple']"
8,"['adobe', 'ibm', 'windows', 'flash', 'internet', 'microsoft']"
9,"['windows', 'flash', 'ios', 'chrome', 'mac', 'microsoft']"
10,"['windows', 'mozilla', 'ibm', 'apple']"
11,"['ios', 'cisco', 'internet']"
12,"['oracle', 'mac', 'adobe', 'apple']"
13,"['oracle', 'chrome', 'flash', 'adobe', 'internet']"
14,"['oracle', 'flash', 'firefox']"
15,"['android', 'flash', 'adobe', 'ibm', 'iphone']"
16,"['chrome', 'mac', 'adobe', 'microsoft']"
17,"['acrobat', 'flash', 'firefox', 'apple', 'microsoft']"
18,"['cisco', 'flash', 'adobe']"
19,"['google', 'cisco', 'apple', 'chrome', 'flash', 'mac', 'oracle']"
20,"['google', 'adobe', 'internet']"
21,"['cisco', 'ibm', 'emc', 'chrome', 'flash', 'windows', 'internet']"
22,"['windows', 'android', 'google']"
23,"['adobe', 'windows', 'mozilla', 'mac', 'iphone', 'internet', 'oracle', 'cisco']"
24,"['apple', 'microsoft', 'mac', 'iphone', 'oracle', 'acrobat']"
25,"['adobe', 'ibm', 'emc', 'flash', 'internet', 'oracle', 'firefox', 'apple']"
26,"['oracle', 'windows', 'flash', 'cisco', 'iphone']"
27,"['adobe', 'apple', 'windows', 'flash', 'acrobat', 'internet', 'microsoft', 'ibm']"
28,"['cisco', 'apple', 'windows', 'flash', 'internet', 'oracle']"
29,"['android', 'firefox', 'emc']"
30,"['chrome', 'cisco', 'apple', 'emc', 'internet']"
31,"['ios', 'android', 'flash', 'cisco']"
32,"['mozilla', 'firefox', 'apple', 'windows', 'flash', 'oracle']"
33,"['ios', 'cisco', 'apple', 'firefox', 'iphone']"
34,"['adobe', 'flash', 'internet', 'oracle', 'cisco', 'android']"
35,"['ios', 'cisco', 'apple', 'internet']"
36,"['cisco', 'ibm', 'internet']"
37,"['firefox', 'android', 'ios', 'apple', 'iphone']"
38,"['oracle', 'ios', 'android', 'adobe', 'microsoft']"
39,"['windows', 'google', 'apple']"
40,"['ibm', 'flash', 'mac', 'iphone', 'internet', 'oracle']"
41,"['windows', 'internet', 'firefox', 'apple', 'microsoft']"
42,"['adobe', 'ibm', 'chrome', 'flash', 'cisco', 'apple']"
43,"['oracle', 'firefox', 'mac', 'flash', 'cisco']"
44,"['oracle', 'mac', 'flash', 'apple', 'internet']"
45,"['chrome', 'mac', 'flash', 'adobe', 'apple']"
46,"['oracle', 'hp', 'mac', 'adobe', 'microsoft']"
47,"['ibm', 'hp', 'flash', 'mac', 'iphone', 'android']"
48,"['flash', 'cisco', 'ibm', 'windows', 'mozilla', 'chrome', 'oracle', 'acrobat']"
49,"['google', 'adobe', 'ibm', 'acrobat', 'mac', 'oracle', 'android', 'microsoft']"
50,"['ibm', 'windows', 'mozilla', 'chrome', 'internet', 'oracle']"
51,"['chrome', 'windows', 'adobe', 'acrobat', 'internet']"
52,"['oracle', 'firefox', 'adobe', 'apple']"
53,"['flash', 'mac', 'mozilla', 'google', 'apple']"
54,"['windows', 'chrome', 'hp', 'google']"
55,"['android', 'flash', 'adobe', 'apple', 'iphone']"
56,"['firefox', 'ibm', 'iphone', 'oracle', 'adobe', 'microsoft']"
57,"['acrobat', 'microsoft', 'iphone']"
58,"['windows', 'ios', 'android', 'adobe']"
59,"['firefox', 'apple', 'hp', 'flash', 'microsoft', 'mac', 'cisco', 'acrobat']"
60,"['apple', 'windows', 'flash', 'chrome', 'oracle', 'microsoft']"
61,"['google', 'ibm', 'flash', 'mac', 'iphone', 'acrobat']"
62,"['ios', 'mozilla', 'google', 'adobe', 'microsoft']"
63,"['adobe', 'iphone']"
64,"['cisco', 'adobe', 'apple', 'firefox', 'iphone']"
65,"['windows', 'firefox', 'cisco', 'internet']"
66,"['firefox', 'cisco']"
67,"['chrome', 'firefox', 'adobe', 'internet']"
68,"['oracle', 'android', 'mac']"
69,"['google', 'firefox', 'iphone', 'internet', 'adobe', 'microsoft']"
70,"['mac', 'adobe', 'ibm', 'iphone']"
71,"['windows', 'mozilla', 'internet']"
72,"['internet', 'ibm', 'apple']"
73,"['flash', 'mac', 'internet', 'microsoft', 'iphone']"
74,"['windows', 'flash', 'adobe', 'microsoft', 'apple']"
75,"['adobe', 'apple', 'chrome', 'flash', 'mac', 'internet', 'oracle', 'ibm']"
76,"['firefox', 'cisco']"
77,"['chrome', 'windows', 'adobe', 'iphone', 'internet']"
78,"['mac', 'flash', 'ios', 'microsoft', 'acrobat']"
79,"['google', 'cisco', 'ibm', 'flash', 'internet', 'microsoft']"
80,"['flash', 'apple', 'chrome', 'mozilla', 'iphone', 'internet', 'android']"
81,"['adobe', 'firefox', 'windows', 'internet', 'oracle', 'cisco', 'microsoft']"
82,"['chrome', 'mac', 'flash', 'cisco', 'apple']"
83,"['mac', 'android', 'microsoft']"
84,"['chrome', 'flash', 'mozilla', 'adobe']"
85,"['ios', 'emc', 'internet']"
86,"['google', 'adobe', 'apple', 'windows', 'hp', 'mac', 'iphone', 'oracle']"
87,"['adobe', 'windows', 'chrome', 'internet', 'firefox', 'android', 'microsoft']"
88,"['firefox', 'apple', 'hp', 'flash', 'mac', 'iphone']"
89,"['adobe', 'apple', 'firefox', 'flash', 'internet', 'cisco', 'microsoft']"
90,"['mozilla', 'microsoft', 'iphone']"
91,"['flash', 'hp', 'google', 'adobe', 'ibm']"
92,"['firefox', 'ibm', 'windows', 'flash', 'oracle', 'adobe', 'android', 'microsoft']"
93,"['oracle', 'flash', 'apple']"
94,"['cisco', 'apple', 'ios', 'mac', 'internet', 'adobe', 'ibm']"
95,"['adobe', 'apple', 'mac', 'iphone', 'oracle', 'android', 'ibm']"
96,"['internet', 'microsoft', 'ibm']"
97,"['flash', 'mac', 'google', 'microsoft', 'acrobat']"
98,"['google', 'ibm', 'acrobat']"
99,"['flash', 'firefox', 'ibm', 'iphone']"
100,"['firefox', 'flash', 'adobe', 'apple', 'acrobat']"
101,"['firefox', 'ibm', 'windows', 'flash', 'ios', 'mac']"
102,"['oracle', 'adobe', 'cisco', 'ibm', 'acrobat']"
103,"['windows', 'mozilla', 'ibm', 'internet']"
104,"['adobe', 'ibm', 'emc', 'chrome', 'mozilla', 'mac', 'iphone', 'internet', 'microsoft']"
105,"['oracle', 'internet', 'microsoft', 'iphone']"
106,"['google', 'adobe', 'chrome', 'ios', 'mac', 'internet', 'oracle', 'acrobat']"
107,"['chrome', 'android', 'google', 'apple']"
108,"['cisco', 'apple', 'firefox', 'chrome', 'adobe', 'android', 'acrobat', 'ibm']"
109,"['cisco', 'windows', 'mac', 'internet', 'oracle', 'android']"
110,"['iphone', 'flash', 'cisco', 'ibm', 'internet']"
111,"['ios', 'microsoft']"
112,"['google', 'adobe', 'apple', 'internet', 'oracle', 'cisco', 'android']"
113,"['cisco', 'windows', 'mac', 'iphone', 'internet', 'adobe', 'microsoft']"
114,"['oracle', 'google', 'cisco', 'iphone', 'acrobat']"
115,"['windows', 'mac', 'ibm', 'microsoft']"
116,"['ibm', 'chrome', 'flash', 'microsoft', 'oracle', 'acrobat', 'apple']"
117,"['google', 'adobe', 'ibm', 'chrome', 'mozilla', 'mac', 'iphone', 'internet', 'android', 'microsoft']"
118,"['windows', 'android', 'flash', 'apple']"
119,"['adobe', 'internet']"
120,"['flash', 'google', 'firefox', 'acrobat', 'internet']"
121,"['cisco', 'apple', 'firefox', 'chrome', 'windows', 'mac', 'iphone', 'oracle', 'adobe']"
122,"['flash', 'mac', 'google', 'cisco', 'iphone']"
123,"['oracle', 'flash', 'mac', 'mozilla', 'ibm']"
124,"['windows', 'hp', 'adobe', 'acrobat']"
125,"['chrome', 'adobe', 'acrobat']"
126,"['adobe', 'ibm', 'chrome', 'mac', 'internet', 'oracle', 'cisco']"
127,"['apple', 'hp', 'ios', 'mac', 'oracle', 'android', 'microsoft', 'ibm']"
128,"['mac', 'iphone', 'apple', 'acrobat']"
129,"['adobe', 'apple', 'internet', 'oracle', 'cisco', 'microsoft']"
130,"['oracle', 'acrobat', 'microsoft', 'apple']"
131,"['chrome', 'mac', 'flash', 'ios', 'apple']"
132,"['firefox', 'apple', 'internet']"
133,"['adobe', 'cisco', 'ibm', 'acrobat']"
134,"['mozilla', 'internet']"
135,"['oracle', 'chrome', 'flash', 'microsoft', 'iphone']"
136,"['mozilla', 'firefox', 'windows', 'flash', 'iphone', 'internet']"
137,"['apple', 'flash', 'mac', 'iphone', 'internet', 'oracle']"
138,"['firefox', 'flash', 'adobe', 'apple']"
139,"['windows', 'firefox', 'adobe', 'apple']"
140,"['oracle', 'chrome', 'mac', 'firefox', 'internet']"
141,"['mac', 'adobe']"
142,"['mozilla', 'cisco', 'apple', 'firefox', 'flash', 'adobe']"
143,"['google', 'apple', 'chrome', 'windows', 'android', 'microsoft']"
144,"['firefox', 'microsoft', 'emc']"
145,"['adobe', 'apple', 'flash', 'mac', 'oracle', 'acrobat']"
146,"['oracle', 'cisco', 'ibm', 'iphone']"
147,"['mac', 'flash', 'cisco']"
148,"['mozilla', 'apple', 'emc', 'windows', 'flash', 'microsoft']"
149,"['apple', 'flash', 'microsoft', 'internet', 'oracle', 'acrobat', 'ibm']"
150,"['windows', 'iphone', 'apple', 'microsoft']"
151,"['oracle', 'microsoft', 'internet']"
152,"['flash', 'cisco', 'internet']"
153,"['ibm', 'hp', 'flash', 'mac', 'internet', 'oracle', 'microsoft', 'apple']"
154,"['adobe', 'ibm', 'chrome', 'windows', 'mac', 'oracle', 'microsoft']"
155,"['google', 'adobe', 'apple', 'flash', 'iphone', 'oracle', 'microsoft']"
156,"['android', 'internet', 'ibm', 'apple']"
157,"['mozilla', 'flash', 'ios', 'google', 'internet', 'android']"
158,"['adobe', 'apple', 'emc', 'flash', 'mac', 'oracle', 'microsoft']"
159,"['windows', 'adobe', 'apple', 'acrobat']"
160,"['oracle', 'chrome', 'flash', 'ibm', 'windows']"
161,"['oracle', 'adobe', 'acrobat']"
162,"['mac', 'adobe', 'apple']"
163,"['oracle', 'adobe', 'apple', 'iphone']"
164,"['mac', 'android', 'flash', 'apple', 'acrobat']"
165,"['windows', 'mac', 'mozilla', 'firefox', 'microsoft']"
166,"['mozilla', 'apple', 'chrome', 'flash', 'mac', 'android']"
167,"['chrome', 'mac', 'ios', 'microsoft']"
168,"['oracle', 'hp', 'cisco', 'microsoft', 'internet']"
169,"['oracle', 'android', 'google', 'cisco', 'emc']"
170,"['adobe', 'apple', 'chrome', 'windows', 'iphone', 'internet', 'oracle', 'ibm']"
171,"['adobe', 'ibm', 'flash', 'android', 'microsoft', 'apple']"
172,"['oracle', 'windows', 'flash', 'internet']"
173,"['cisco', 'apple', 'iphone', 'internet', 'oracle', 'microsoft']"
174,"['windows', 'cisco', 'adobe', 'apple', 'microsoft']"
175,"['oracle', 'flash', 'hp', 'mozilla', 'google']"
176,"['cisco', 'windows', 'hp', 'flash', 'chrome', 'acrobat']"
177,"['google', 'cisco', 'apple', 'windows', 'ios', 'mac', 'ibm']"
178,"['google', 'firefox', 'apple', 'hp', 'ios', 'android', 'microsoft']"
179,"['flash', 'google', 'mozilla', 'cisco']"
180,"['oracle', 'acrobat', 'microsoft', 'apple']"
181,"['oracle', 'windows', 'mac', 'flash', 'apple']"
182,"['google', 'microsoft', 'iphone']"
183,"['google', 'cisco', 'ibm', 'acrobat', 'mac', 'internet', 'microsoft', 'apple']"
184,"['windows', 'google', 'adobe', 'microsoft', 'internet']"
185,"['cisco', 'apple', 'windows', 'hp', 'ios', 'chrome', 'ibm']"
186,"['hp', 'internet', 'ibm', 'android']"
187,"['mozilla', 'iphone', 'emc']"
188,"['adobe', 'apple', 'windows', 'flash', 'oracle', 'android', 'microsoft']"
189,"['flash', 'apple', 'ibm', 'microsoft']"
190,"['iphone', 'apple', 'microsoft']"
191,"['windows', 'flash', 'apple']"
192,"['oracle', 'adobe', 'flash', 'cisco', 'apple']"
193,"['windows', 'google', 'firefox', 'microsoft', 'acrobat']"
194,"['oracle', 'adobe', 'internet']"
195,"['windows', 'hp', 'iphone', 'apple', 'acrobat']"
196,"['flash', 'emc', 'chrome', 'mozilla', 'mac', 'oracle']"
197,"['adobe', 'chrome', 'windows', 'mac', 'internet', 'cisco', 'microsoft']"
198,"['windows', 'firefox', 'apple']"
199,"['oracle', 'firefox', 'cisco']"
200,"['oracle', 'flash', 'cisco', 'ibm', 'iphone']"
201,"['google', 'emc', 'flash', 'mac', 'oracle', 'microsoft']"
202,"['adobe', 'apple', 'windows', 'flash', 'ios', 'mac']"
203,"['cisco', 'acrobat']"
204,"['adobe', 'windows', 'internet', 'oracle', 'cisco', 'android', 'acrobat']"
205,"['mac', 'android', 'flash', 'microsoft', 'acrobat']"
206,"['oracle', 'flash', 'ios', 'apple', 'microsoft']"
207,"['mozilla', 'adobe', 'ibm', 'flash', 'acrobat', 'iphone', 'android', 'microsoft']"
208,"['windows', 'acrobat', 'chrome', 'iphone', 'oracle', 'microsoft']"
209,"['ibm', 'chrome', 'mozilla', 'windows', 'internet', 'oracle', 'microsoft']"
210,"['adobe', 'ibm', 'mozilla', 'mac', 'internet', 'firefox', 'microsoft']"
211,"['cisco', 'apple', 'hp', 'flash', 'mac', 'internet', 'oracle']"
212,"['mac', 'android', 'microsoft']"
213,"['flash', 'microsoft', 'internet']"
214,"['mozilla', 'google', 'microsoft', 'acrobat', 'apple']"
215,"['google', 'adobe', 'chrome', 'mozilla', 'acrobat', 'mac', 'internet', 'microsoft']"
216,"['windows', 'firefox', 'adobe', 'ibm']"
217,"['firefox', 'mac', 'cisco', 'acrobat', 'internet']"
218,"['windows', 'hp', 'ios', 'android', 'internet']"
219,"['google', 'cisco', 'apple', 'windows', 'hp', 'ios', 'internet', 'android', 'microsoft']"
220,"['chrome', 'flash', 'mac', 'google', 'apple']"
221,"['hp', 'mozilla', 'cisco', 'apple', 'acrobat']"
222,"['google', 'apple', 'windows', 'flash', 'microsoft', 'mac', 'acrobat']"
223,"['google', 'cisco', 'flash', 'iphone', 'internet', 'oracle']"
224,"['google', 'apple', 'windows', 'flash', 'ios', 'internet', 'android']"
225,"['adobe', 'emc', 'windows', 'mozilla', 'iphone', 'microsoft']"
226,"['google', 'cisco', 'hp', 'iphone', 'oracle', 'firefox', 'microsoft']"
227,"['chrome', 'firefox', 'apple']"
228,"['windows', 'mac', 'google', 'internet']"
229,"['windows', 'apple', 'microsoft', 'ibm']"
230,"['google', 'adobe', 'mac', 'internet', 'oracle', 'firefox', 'microsoft']"
231,"['flash', 'ios', 'apple']"
232,"['oracle', 'chrome', 'mac', 'cisco', 'android']"
233,"['chrome', 'cisco']"
234,"['oracle', 'mac', 'adobe']"
235,"['internet', 'google', 'firefox', 'microsoft', 'iphone']"
236,"['oracle', 'mac', 'flash', 'adobe', 'microsoft']"
237,"['mac', 'adobe', 'acrobat', 'emc', 'internet']"
238,"['oracle', 'chrome', 'android', 'apple']"
239,"['google', 'firefox', 'ibm', 'iphone', 'android', 'acrobat']"
240,"['flash', 'mozilla', 'adobe', 'apple', 'internet']"
241,"['hp', 'iphone', 'cisco', 'microsoft', 'internet']"
242,"['firefox', 'emc', 'chrome', 'acrobat', 'internet', 'adobe', 'android', 'microsoft']"
243,"['cisco', 'acrobat', 'iphone', 'oracle', 'adobe', 'android', 'microsoft']"
244,"['flash', 'adobe', 'microsoft', 'internet']"
245,"['windows', 'firefox', 'android', 'flash', 'adobe']"
246,"['firefox', 'flash', 'iphone', 'microsoft', 'internet']"
247,"['ibm', 'chrome', 'flash', 'ios', 'microsoft', 'oracle', 'acrobat']"
248,"['adobe', 'ibm', 'emc', 'windows', 'mac', 'android']"
249,"['mac', 'flash', 'apple', 'iphone']"
250,"['mac', 'android', 'adobe', 'ibm']"
251,"['android', 'ios', 'apple', 'ibm']"
252,"['mozilla', 'firefox', 'ibm']"
253,"['firefox', 'ibm', 'chrome', 'oracle', 'cisco', 'acrobat']"
254,"['cisco', 'flash', 'adobe', 'firefox']"
255,"['adobe', 'windows', 'iphone', 'oracle', 'cisco', 'android', 'microsoft']"
256,"['google', 'cisco', 'flash', 'mac', 'adobe', 'android']"
257,"['chrome', 'adobe', 'ibm', 'iphone']"
258,"['ios', 'cisco', 'acrobat']"
259,"['firefox', 'apple', 'windows', 'mac', 'internet', 'adobe']"
260,"['adobe', 'apple', 'ios', 'iphone', 'oracle', 'android', 'microsoft']"
261,"['adobe', 'apple', 'chrome', 'microsoft', 'windows', 'oracle', 'acrobat']"
262,"['mozilla', 'cisco', 'flash', 'google', 'adobe', 'android', 'microsoft']"
263,"['apple', 'flash', 'ios', 'mac', 'iphone', 'oracle', 'microsoft', 'ibm']"
264,"['mac', 'apple']"
265,"['emc', 'windows', 'flash', 'acrobat', 'oracle', 'microsoft']"
266,"['oracle', 'chrome', 'cisco']"
267,"['chrome', 'firefox', 'adobe', 'microsoft', 'internet']"
268,"['google', 'adobe', 'apple', 'windows', 'flash', 'ios', 'mac', 'internet']"
269,"['oracle', 'chrome', 'flash', 'ibm', 'acrobat']"
270,"['adobe', 'apple', 'chrome', 'mac', 'oracle', 'cisco', 'android']"
271,"['cisco', 'flash', 'ios', 'mac', 'firefox', 'microsoft']"
272,"['google', 'apple', 'acrobat', 'mac', 'iphone', 'android', 'microsoft', 'ibm']"
273,"['google', 'adobe', 'apple', 'iphone', 'oracle', 'android', 'acrobat']"
274,"['cisco', 'ibm', 'flash', 'iphone', 'internet', 'oracle', 'acrobat', 'apple']"
275,"['google', 'adobe', 'ibm', 'firefox', 'flash', 'mac', 'internet', 'cisco']"
276,"['adobe', 'ibm', 'flash', 'acrobat', 'internet', 'oracle', 'android', 'microsoft']"
277,"['google', 'cisco', 'flash', 'ios', 'iphone', 'adobe', 'microsoft']"
278,"['windows', 'cisco', 'ibm', 'internet']"
279,"['windows', 'flash', 'internet', 'apple', 'microsoft']"
280,"['hp', 'flash', 'adobe']"
281,"['google', 'firefox', 'mozilla', 'oracle', 'adobe', 'android', 'acrobat']"
282,"['iphone', 'adobe', 'microsoft', 'apple']"
283,"['adobe', 'ibm', 'emc', 'windows', 'flash', 'internet', 'android']"
284,"['hp', 'google', 'ibm', 'android', 'internet']"
285,"['flash', 'google', 'cisco', 'microsoft', 'apple']"
286,"['cisco', 'ibm', 'windows', 'flash', 'microsoft', 'mac', 'acrobat']"
287,"['cisco', 'ibm', 'mac', 'iphone', 'adobe', 'microsoft']"
288,"['google', 'apple', 'chrome', 'mozilla', 'ios', 'flash', 'mac', 'microsoft']"
289,"['oracle', 'windows', 'apple', 'acrobat']"
290,"['ios', 'android', 'google', 'cisco', 'microsoft']"
291,"['iphone', 'firefox', 'apple', 'acrobat']"
292,"['windows', 'adobe', 'cisco']"
293,"['google', 'cisco', 'apple', 'chrome', 'flash', 'mac', 'acrobat']"
294,"['ios', 'mac', 'firefox', 'microsoft', 'internet']"
295,"['adobe', 'ibm', 'windows', 'flash', 'mac', 'internet', 'oracle', 'android', 'microsoft']"
296,"['oracle', 'chrome', 'mac', 'flash', 'adobe']"
297,"['hp', 'flash', 'apple', 'internet']"
298,"['flash', 'mac', 'google', 'iphone']"
299,"['cisco', 'ibm', 'mac', 'adobe', 'microsoft', 'apple']"
300,"['adobe', 'apple', 'chrome', 'flash', 'windows', 'mac', 'internet']"
301,"['google', 'firefox', 'apple', 'flash', 'internet', 'cisco', 'android', 'microsoft']"
302,"['flash', 'firefox', 'apple']"
303,"['mozilla', 'ibm', 'emc', 'flash', 'iphone', 'microsoft']"
304,"['acrobat', 'iphone', 'ibm', 'microsoft']"
305,"['oracle', 'hp', 'firefox', 'ibm']"
306,"['internet', 'google', 'adobe', 'ibm', 'microsoft']"
307,"['adobe', 'ibm', 'firefox', 'windows', 'cisco', 'android']"
308,"['google', 'cisco', 'ibm', 'windows', 'flash', 'iphone', 'internet', 'microsoft']"
309,"['flash', 'cisco', 'apple', 'acrobat']"
310,"['oracle', 'flash', 'google', 'ibm']"
311,"['chrome', 'firefox', 'flash', 'adobe', 'windows']"
312,"['firefox', 'flash', 'internet', 'oracle', 'android', 'microsoft']"
313,"['internet', 'firefox', 'apple', 'emc', 'acrobat']"
314,"['chrome', 'firefox', 'mozilla', 'adobe', 'microsoft']"
315,"['android', 'mozilla', 'acrobat']"
316,"['ios', 'cisco', 'microsoft']"
317,"['oracle', 'internet']"
318,"['cisco', 'chrome', 'mozilla', 'windows', 'mac', 'internet', 'microsoft']"
319,"['android', 'microsoft', 'apple']"
320,"['cisco', 'windows', 'flash', 'chrome', 'mac', 'adobe']"
321,"['mozilla', 'cisco', 'flash', 'iphone', 'oracle', 'firefox']"
322,"['apple', 'flash', 'mac', 'iphone', 'android', 'microsoft']"
323,"['mac', 'acrobat', 'internet', 'ibm', 'iphone']"
324,"['mac', 'cisco', 'iphone']"
325,"['windows', 'ios', 'adobe', 'microsoft', 'emc']"
326,"['mac', 'firefox', 'ibm']"
327,"['firefox', 'ibm', 'mac', 'cisco', 'android', 'microsoft', 'apple']"
328,"['windows', 'google', 'cisco', 'microsoft', 'internet']"
329,"['oracle', 'windows', 'flash', 'ibm', 'microsoft']"
330,"['cisco', 'ibm', 'flash', 'ios', 'internet', 'adobe', 'android']"
331,"['internet', 'mozilla', 'adobe', 'ibm', 'apple']"
332,"['google', 'cisco', 'apple', 'flash', 'internet', 'firefox', 'android']"
333,"['oracle', 'windows', 'acrobat', 'emc']"
334,"['firefox', 'mac', 'iphone', 'internet', 'oracle', 'adobe', 'microsoft']"
335,"['chrome', 'windows', 'mac', 'flash', 'apple']"
336,"['oracle', 'hp', 'apple', 'acrobat']"
337,"['cisco', 'apple', 'mozilla', 'mac', 'oracle', 'adobe']"
338,"['windows', 'mac', 'mozilla', 'iphone', 'internet']"
339,"['windows', 'flash', 'apple']"
340,"['mac', 'microsoft', 'iphone']"
341,"['cisco', 'apple', 'emc', 'chrome', 'ios', 'windows', 'mac', 'oracle']"
342,"['android', 'google']"
343,"['oracle', 'chrome', 'google', 'adobe', 'apple']"
344,"['internet', 'apple', 'ibm']"
345,"['ios', 'cisco']"
346,"['google', 'cisco', 'ibm', 'mozilla', 'mac', 'iphone', 'internet']"
347,"['google', 'adobe', 'apple', 'mac', 'iphone', 'internet', 'acrobat']"
348,"['chrome', 'cisco', 'adobe', 'apple', 'firefox']"
349,"['cisco', 'ibm', 'windows', 'flash', 'microsoft', 'mac', 'acrobat']"
350,"['apple', 'windows', 'flash', 'oracle', 'microsoft', 'ibm']"
351,"['google', 'firefox', 'chrome', 'flash', 'mac', 'internet']"
352,"['iphone', 'acrobat', 'adobe', 'apple', 'microsoft']"
353,"['cisco', 'apple', 'flash', 'mac', 'iphone', 'oracle', 'ibm']"
354,"['adobe', 'mac', 'cisco', 'microsoft']"
355,"['flash', 'google', 'cisco', 'ios']"
356,"['chrome', 'flash', 'mac', 'mozilla', 'iphone']"
357,"['adobe', 'emc', 'windows', 'chrome', 'mac', 'oracle']"
358,"['google', 'firefox', 'hp', 'flash', 'mac', 'iphone', 'adobe', 'microsoft']"
359,"['google', 'cisco', 'windows', 'iphone', 'oracle', 'microsoft']"
360,"['google', 'firefox', 'chrome', 'flash', 'acrobat', 'microsoft']"
361,"['google', 'firefox', 'chrome', 'mac', 'internet', 'acrobat']"
362,"['google', 'cisco', 'chrome', 'flash', 'acrobat', 'mac', 'internet', 'adobe', 'microsoft']"
363,"['flash', 'apple']"
364,"['adobe', 'apple', 'chrome', 'microsoft', 'android', 'acrobat']"
365,"['firefox', 'ibm', 'windows', 'internet', 'cisco', 'acrobat']"
366,"['mac', 'firefox', 'microsoft', 'acrobat']"
367,"['cisco', 'adobe', 'apple', 'iphone']"
368,"['oracle', 'windows', 'google', 'firefox', 'iphone']"
369,"['adobe', 'apple', 'internet']"
370,"['firefox', 'adobe', 'microsoft']"
371,"['oracle', 'firefox', 'mozilla', 'adobe']"
372,"['windows', 'adobe', 'acrobat']"
373,"['cisco', 'apple', 'flash', 'internet', 'oracle', 'ibm']"
374,"['chrome', 'mac', 'flash', 'cisco', 'iphone']"
375,"['google', 'cisco', 'apple', 'mac', 'internet', 'firefox', 'android', 'microsoft', 'ibm']"
376,"['mac', 'flash', 'adobe', 'apple']"
377,"['oracle', 'mac', 'adobe', 'android']"
378,"['flash', 'cisco', 'microsoft', 'acrobat']"
379,"['cisco', 'ibm', 'windows', 'hp', 'chrome', 'mac', 'internet', 'oracle', 'acrobat']"
380,"['mac', 'adobe', 'microsoft']"
381,"['flash', 'cisco', 'mozilla', 'adobe', 'microsoft']"
382,"['adobe', 'ibm', 'firefox', 'internet', 'oracle', 'cisco', 'acrobat', 'apple']"
383,"['adobe', 'apple', 'flash', 'ios', 'microsoft', 'mac', 'cisco', 'acrobat']"
384,"['cisco', 'windows', 'flash', 'iphone', 'adobe', 'acrobat']"
385,"['chrome', 'cisco', 'adobe', 'ibm', 'internet']"
386,"['firefox', 'cisco', 'iphone']"
387,"['cisco', 'adobe', 'apple', 'internet']"
388,"['chrome', 'firefox', 'hp', 'cisco', 'mac']"
389,"['firefox', 'apple', 'ios', 'mac', 'internet', 'acrobat']"
390,"['android', 'microsoft', 'internet']"
391,"['flash', 'mozilla', 'google', 'iphone']"
392,"['google', 'adobe', 'flash', 'iphone', 'internet', 'acrobat']"
393,"['mac', 'acrobat', 'flash', 'ibm', 'microsoft']"
394,"['flash', 'mac', 'mozilla', 'acrobat', 'internet']"
395,"['oracle', 'flash', 'firefox', 'apple']"
396,"['cisco', 'mac', 'iphone', 'internet', 'android', 'acrobat']"
397,"['firefox', 'flash', 'mac', 'oracle', 'cisco', 'android']"
398,"['flash', 'adobe', 'ibm', 'mozilla', 'acrobat', 'internet', 'cisco', 'microsoft']"
399,"['cisco', 'apple', 'firefox', 'mac', 'iphone', 'oracle', 'adobe']"
400,"['adobe', 'ibm', 'windows', 'mozilla', 'acrobat', 'iphone', 'microsoft']"
401,"['mac', 'adobe', 'iphone', 'acrobat']"
402,"['apple', 'flash', 'ios', 'microsoft', 'mac', 'internet', 'acrobat']"
403,"['google', 'cisco', 'apple', 'flash', 'ios', 'oracle', 'android']"
404,"['cisco', 'ibm', 'flash', 'internet', 'adobe', 'microsoft']"
405,"['cisco', 'apple', 'windows', 'mac', 'adobe', 'acrobat', 'ibm']"
406,"['mozilla', 'cisco', 'flash', 'mac', 'internet', 'oracle']"
407,"['oracle', 'flash', 'mac', 'google', 'apple']"
408,"['adobe', 'iphone']"
409,"['ibm', 'mozilla', 'mac', 'internet', 'android', 'apple']"
410,"['chrome', 'google', 'adobe', 'microsoft']"
411,"['firefox', 'apple', 'flash', 'iphone', 'adobe', 'android']"
412,"['windows', 'adobe']"
413,"['oracle', 'flash', 'google', 'ios', 'apple']"
414,"['windows', 'microsoft', 'internet']"
415,"['apple', 'emc', 'chrome', 'flash', 'iphone', 'microsoft']"
416,"['mac', 'adobe']"
417,"['cisco', 'chrome', 'mozilla', 'windows', 'oracle', 'android', 'acrobat']"
418,"['mac', 'flash', 'microsoft', 'iphone']"
419,"['android', 'apple', 'acrobat']"
420,"['adobe', 'ibm', 'chrome', 'hp', 'flash', 'ios', 'windows', 'oracle']"
421,"['firefox', 'chrome', 'acrobat', 'mac', 'iphone', 'oracle', 'microsoft']"
422,"['ibm', 'chrome', 'flash', 'iphone', 'internet', 'oracle', 'microsoft']"
423,"['cisco', 'apple', 'iphone', 'internet', 'firefox', 'microsoft', 'ibm']"
424,"['oracle', 'flash', 'cisco', 'apple', 'internet']"
425,"['firefox', 'emc', 'hp', 'flash', 'internet', 'oracle']"
426,"['firefox', 'apple', 'mac', 'internet', 'oracle', 'acrobat']"
427,"['google', 'cisco', 'apple', 'iphone', 'internet', 'microsoft']"
428,"['chrome', 'mac', 'flash', 'apple', 'ibm']"
429,"['mozilla', 'cisco', 'apple', 'flash', 'internet', 'oracle']"
430,"['oracle', 'firefox', 'adobe', 'acrobat', 'windows']"
431,"['mozilla', 'adobe', 'flash', 'mac', 'google', 'firefox']"
432,"['oracle', 'windows', 'adobe', 'apple']"
433,"['mozilla', 'cisco', 'windows', 'flash', 'acrobat', 'adobe', 'microsoft']"
434,"['windows', 'flash', 'mozilla']"
435,"['firefox', 'apple', 'ibm']"
436,"['windows', 'android', 'ibm']"
437,"['ibm', 'chrome', 'microsoft', 'windows', 'oracle', 'acrobat']"
438,"['cisco', 'ibm', 'flash', 'ios', 'adobe', 'microsoft']"
439,"['apple', 'flash', 'mac', 'internet', 'microsoft', 'ibm']"
440,"['mozilla', 'adobe', 'apple', 'flash', 'mac', 'acrobat']"
441,"['cisco', 'apple', 'windows', 'hp', 'flash', 'oracle', 'android']"
442,"['google', 'adobe', 'chrome', 'flash', 'mac', 'internet', 'microsoft']"
443,"['chrome', 'internet', 'microsoft', 'ibm']"
444,"['chrome', 'hp', 'flash', 'cisco']"
445,"['adobe', 'mozilla', 'mac', 'internet', 'android', 'microsoft']"
446,"['windows', 'mac', 'cisco']"
447,"['cisco', 'ibm', 'chrome', 'flash', 'oracle', 'adobe', 'acrobat']"
448,"['chrome', 'cisco', 'apple', 'internet']"
449,"['windows', 'flash', 'cisco', 'microsoft', 'emc']"
450,"['flash', 'apple', 'mozilla', 'ios', 'microsoft', 'oracle', 'acrobat']"
451,"['firefox', 'ibm', 'emc', 'windows', 'flash', 'mac', 'internet', 'adobe']"
452,"['google', 'adobe', 'apple', 'windows', 'internet', 'oracle']"
453,"['apple', 'emc', 'flash', 'mac', 'iphone', 'ibm']"
454,"['firefox', 'mac', 'ios', 'apple', 'ibm']"
455,"['android', 'iphone', 'adobe', 'apple', 'microsoft']"
456,"['mozilla', 'cisco', 'apple', 'iphone']"
457,"['mac', 'iphone', 'apple', 'ibm']"
458,"['microsoft', 'internet']"
459,"['windows', 'mac', 'flash', 'apple', 'acrobat']"
460,"['oracle', 'chrome', 'mac', 'cisco', 'apple']"
461,"['google', 'apple', 'emc', 'flash', 'internet', 'oracle']"
462,"['oracle', 'windows', 'mac', 'ios', 'apple']"
463,"['cisco', 'ibm', 'mozilla', 'microsoft', 'mac', 'acrobat']"
464,"['flash', 'cisco', 'ibm', 'mozilla', 'iphone', 'internet', 'microsoft']"
465,"['google', 'ibm', 'windows', 'chrome', 'android', 'microsoft']"
466,"['google', 'cisco', 'ibm', 'chrome', 'mozilla', 'mac', 'android', 'microsoft']"
467,"['ibm', 'iphone']"
468,"['google', 'firefox', 'ibm', 'mac', 'adobe', 'microsoft']"
469,"['mac', 'ibm', 'internet']"
470,"['cisco', 'ibm', 'chrome', 'flash', 'windows', 'internet', 'oracle']"
471,"['mac', 'iphone', 'cisco', 'microsoft', 'android']"
472,"['oracle', 'google', 'adobe', 'apple', 'internet']"
473,"['adobe', 'apple', 'chrome', 'mozilla', 'mac', 'iphone', 'internet', 'android']"
474,"['google', 'flash', 'acrobat', 'iphone', 'oracle', 'microsoft']"
475,"['firefox', 'chrome', 'hp', 'ios', 'windows', 'internet', 'microsoft']"
476,"['flash', 'mozilla', 'cisco', 'apple', 'microsoft']"
477,"['firefox', 'ibm', 'mozilla', 'mac', 'internet', 'adobe']"
478,"['oracle', 'google', 'apple', 'acrobat']"
479,"['flash', 'android', 'mozilla', 'ibm']"
480,"['firefox', 'hp', 'iphone', 'internet', 'oracle', 'cisco', 'acrobat']"
481,"['cisco', 'ibm', 'flash', 'microsoft', 'internet', 'oracle', 'adobe', 'acrobat']"
482,"['chrome', 'google', 'adobe', 'apple']"
483,"['windows', 'mac', 'flash', 'adobe']"
484,"['windows', 'microsoft', 'emc', 'iphone']"
485,"['adobe', 'flash', 'cisco', 'microsoft', 'apple']"
486,"['chrome', 'mozilla', 'microsoft', 'apple', 'ibm']"
487,"['chrome', 'mac', 'flash', 'adobe', 'android']"
488,"['oracle', 'android', 'flash', 'cisco', 'acrobat']"
489,"['cisco', 'flash', 'ios', 'mac', 'iphone', 'oracle', 'adobe', 'acrobat']"
490,"['google', 'adobe', 'apple', 'flash', 'oracle', 'firefox', 'microsoft']"
491,"['windows', 'hp', 'flash', 'internet', 'android', 'microsoft']"
492,"['windows', 'adobe', 'mac', 'google', 'cisco']"
493,"['cisco', 'internet', 'adobe', 'apple', 'microsoft']"
494,"['cisco', 'flash', 'adobe', 'ibm']"
495,"['google', 'adobe', 'apple', 'firefox', 'chrome', 'mac', 'internet', 'cisco']"
496,"['firefox', 'ibm', 'emc', 'flash', 'internet', 'oracle', 'android', 'microsoft']"
497,"['oracle', 'android', 'firefox', 'microsoft', 'internet']"
498,"['mozilla', 'ibm', 'windows', 'flash', 'chrome', 'mac', 'apple']"
499,"['chrome', 'adobe', 'apple', 'emc', 'acrobat']"
500,"['android', 'mozilla', 'firefox', 'ibm', 'internet']"
501,"['oracle', 'mac', 'google', 'apple']"
502,"['chrome', 'android', 'firefox', 'ibm']"
503,"['firefox', 'apple', 'chrome', 'flash', 'iphone', 'oracle', 'cisco', 'android']"
504,"['google', 'adobe', 'firefox', 'windows', 'mac', 'internet', 'cisco']"
505,"['chrome', 'ios', 'android', 'cisco']"
506,"['oracle', 'flash', 'google', 'windows']"
507,"['mac', 'internet', 'microsoft', 'ibm']"
508,"['mac', 'android', 'firefox', 'microsoft', 'ibm']"
509,"['oracle', 'windows', 'mac', 'apple', 'iphone']"
510,"['firefox', 'mac', 'adobe', 'internet']"
511,"['adobe', 'chrome', 'acrobat', 'internet', 'oracle', 'microsoft']"
512,"['android', 'adobe', 'iphone']"
513,"['google', 'cisco', 'apple', 'chrome', 'flash', 'ios', 'internet', 'adobe']"
514,"['google', 'adobe', 'ibm', 'windows', 'flash', 'mac', 'iphone', 'android', 'apple']"
515,"['flash', 'google', 'adobe', 'iphone', 'internet']"
516,"['hp', 'flash', 'microsoft']"
517,"['windows', 'mac', 'ibm']"
518,"['windows', 'flash', 'adobe']"
519,"['cisco', 'apple', 'chrome', 'ios', 'internet', 'oracle', 'ibm']"
520,"['chrome', 'ios', 'cisco', 'apple', 'microsoft']"
521,"['mac', 'flash', 'microsoft', 'internet']"
522,"['google', 'firefox', 'apple', 'emc', 'mozilla', 'ios', 'flash', 'microsoft']"
523,"['flash', 'microsoft']"
524,"['firefox', 'iphone', 'ios', 'ibm', 'microsoft']"
525,"['windows', 'flash', 'apple']"
526,"['google', 'firefox', 'ibm', 'chrome', 'flash', 'iphone', 'internet', 'oracle']"
527,"['mozilla', 'chrome', 'hp', 'flash', 'ios', 'mac']"
528,"['hp', 'microsoft', 'acrobat']"
529,"['mac', 'cisco', 'ibm']"
530,"['windows', 'mac', 'google', 'apple', 'acrobat']"
531,"['ios', 'google', 'cisco', 'apple', 'ibm']"
532,"['windows', 'mac', 'google', 'iphone', 'internet']"
533,"['iphone', 'microsoft', 'internet']"
534,"['ios', 'adobe', 'emc']"
535,"['flash', 'adobe']"
536,"['cisco', 'apple', 'flash', 'mac', 'iphone', 'internet', 'acrobat']"
537,"['google', 'cisco', 'apple', 'mac', 'internet', 'microsoft']"
538,"['oracle', 'chrome', 'cisco', 'microsoft']"
539,"['oracle', 'flash', 'cisco', 'ibm', 'internet']"
540,"['cisco', 'ibm', 'chrome', 'iphone', 'oracle', 'microsoft']"
541,"['adobe', 'apple', 'flash', 'mac', 'iphone', 'oracle', 'ibm']"
542,"['google', 'firefox', 'apple', 'emc', 'flash', 'mac', 'oracle', 'acrobat']"
543,"['cisco', 'apple', 'chrome', 'windows', 'adobe', 'acrobat']"
544,"['google', 'apple', 'windows', 'acrobat', 'android', 'microsoft']"
545,"['cisco', 'ibm', 'flash', 'ios', 'oracle', 'acrobat']"
546,"['chrome', 'flash', 'cisco', 'apple', 'ibm']"
547,"['firefox', 'apple', 'internet', 'adobe', 'android', 'microsoft']"
548,"['oracle', 'hp', 'cisco', 'internet']"
549,"['apple', 'iphone']"
550,"['oracle', 'mac', 'iphone', 'microsoft', 'internet']"
551,"['adobe', 'hp', 'cisco', 'iphone', 'ios']"
552,"['ios', 'cisco', 'ibm', 'firefox', 'iphone']"
553,"['adobe', 'hp', 'cisco', 'internet']"
554,"['flash', 'google', 'acrobat']"
555,"['google', 'cisco', 'apple', 'flash', 'internet', 'oracle']"
556,"['adobe', 'ibm', 'emc', 'ios', 'mac', 'iphone', 'firefox']"
557,"['flash', 'firefox', 'hp', 'mozilla', 'iphone', 'oracle', 'android', 'microsoft']"
558,"['chrome', 'ibm', 'acrobat']"
559,"['oracle', 'flash', 'cisco', 'microsoft']"
560,"['mac', 'cisco', 'apple', 'emc', 'microsoft']"
561,"['cisco', 'apple', 'windows', 'oracle', 'android', 'microsoft']"
562,"['adobe', 'apple', 'windows', 'flash', 'acrobat', 'ibm']"
563,"['firefox', 'windows', 'mozilla', 'mac', 'iphone', 'microsoft']"
564,"['mac', 'mozilla', 'firefox', 'internet']"
565,"['oracle', 'mac', 'firefox', 'emc', 'internet']"
566,"['windows', 'mac', 'flash', 'apple']"
567,"['android', 'flash', 'cisco', 'emc', 'internet']"
568,"['adobe', 'apple', 'chrome', 'windows', 'mac', 'oracle', 'firefox']"
569,"['mac', 'emc', 'internet']"
570,"['mozilla', 'ibm', 'windows', 'hp', 'flash', 'mac', 'microsoft', 'apple']"
571,"['chrome', 'flash', 'adobe', 'emc']"
572,"['cisco', 'ibm', 'emc', 'flash', 'ios', 'internet', 'microsoft']"
573,"['windows', 'google', 'cisco', 'ibm', 'apple']"
574,"['apple', 'flash', 'mac', 'iphone', 'internet', 'oracle', 'microsoft']"
575,"['adobe', 'apple', 'chrome', 'ios', 'windows', 'internet']"
576,"['mac', 'flash', 'apple', 'iphone']"
577,"['firefox', 'acrobat', 'emc', 'internet']"
578,"['apple', 'internet']"
579,"['oracle', 'iphone']"
580,"['flash', 'cisco', 'android', 'google', 'adobe']"
581,"['adobe', 'chrome', 'hp', 'flash', 'internet', 'android']"
582,"['flash', 'adobe', 'apple', 'mozilla', 'mac', 'oracle', 'firefox', 'android', 'microsoft']"
583,"['flash', 'google', 'adobe', 'microsoft', 'internet']"
584,"['firefox', 'ibm', 'windows', 'flash', 'mac', 'android', 'microsoft']"
585,"['chrome', 'android', 'flash', 'adobe', 'ibm']"
586,"['oracle', 'flash', 'adobe']"
587,"['adobe', 'apple', 'hp', 'flash', 'iphone', 'internet', 'cisco']"
588,"['oracle', 'flash', 'firefox', 'apple', 'internet']"
589,"['firefox', 'mac', 'cisco', 'ibm', 'acrobat']"
590,"['cisco', 'ibm', 'flash', 'ios', 'mac', 'internet', 'oracle', 'apple']"
591,"['flash', 'firefox', 'apple', 'internet']"
592,"['windows', 'flash', 'microsoft', 'ibm']"
593,"['adobe', 'mozilla', 'iphone', 'internet', 'cisco', 'microsoft']"
594,"['chrome', 'flash', 'iphone', 'microsoft', 'apple']"
595,"['flash', 'cisco', 'apple', 'ibm']"
596,"['adobe', 'apple', 'hp', 'flash', 'internet', 'oracle', 'android', 'acrobat']"
597,"['mac', 'firefox', 'apple', 'iphone']"
598,"['chrome', 'mac', 'adobe', 'apple', 'ibm']"
599,"['firefox', 'apple', 'chrome', 'flash', 'microsoft', 'acrobat', 'ibm']"
600,"['flash', 'mac', 'iphone', 'oracle', 'android', 'acrobat']"
601,"['cisco', 'flash', 'ios', 'mac', 'iphone', 'firefox']"
602,"['chrome', 'flash', 'acrobat', 'emc']"
603,"['ibm', 'internet']"
604,"['cisco', 'ibm', 'emc', 'mozilla', 'iphone', 'internet', 'firefox', 'microsoft']"
605,"['google', 'firefox', 'apple', 'chrome', 'windows', 'oracle', 'microsoft']"
606,"['oracle', 'android', 'flash', 'cisco', 'internet']"
607,"['cisco', 'ibm', 'flash', 'firefox', 'microsoft', 'apple']"
608,"['mac', 'firefox', 'ibm', 'android']"
609,"['chrome', 'windows', 'microsoft', 'ibm', 'apple']"
610,"['adobe', 'ibm', 'emc', 'windows', 'flash', 'acrobat', 'mac', 'internet', 'oracle', 'microsoft']"
611,"['windows', 'microsoft', 'internet']"
612,"['cisco', 'acrobat']"
613,"['mac', 'adobe']"
614,"['adobe', 'apple', 'flash', 'mac', 'internet', 'oracle', 'android']"
615,"['google', 'adobe', 'ios', 'acrobat', 'oracle', 'microsoft']"
616,"['firefox', 'ibm', 'windows', 'flash', 'android', 'acrobat']"
617,"['cisco', 'apple', 'chrome', 'hp', 'ios', 'acrobat']"
618,"['windows', 'mac', 'emc']"
619,"['ibm', 'chrome', 'mac', 'iphone', 'oracle', 'microsoft']"
620,"['google', 'cisco', 'apple', 'ios', 'iphone', 'android', 'ibm']"
621,"['flash', 'adobe', 'apple']"
622,"['cisco', 'ibm', 'emc', 'chrome', 'firefox', 'android', 'microsoft']"
623,"['firefox', 'ibm', 'hp', 'flash', 'oracle', 'adobe', 'android']"
624,"['windows', 'android', 'microsoft', 'apple']"
625,"['google', 'apple', 'windows', 'flash', 'mac', 'android']"
626,"['google', 'adobe', 'ibm', 'flash', 'oracle', 'apple']"
627,"['mozilla', 'adobe', 'ibm', 'flash', 'mac', 'iphone']"
628,"['firefox', 'windows', 'ios', 'oracle', 'adobe', 'acrobat']"
629,"['adobe', 'chrome', 'ios', 'windows', 'cisco', 'microsoft']"
630,"['google', 'internet', 'ibm', 'emc', 'iphone']"
631,"['chrome', 'firefox', 'adobe', 'microsoft', 'apple']"
632,"['firefox', 'ibm', 'chrome', 'flash', 'iphone', 'oracle']"
633,"['flash', 'mozilla']"
634,"['oracle', 'android', 'firefox', 'microsoft', 'iphone']"
635,"['google', 'adobe', 'ibm', 'mac', 'internet', 'apple']"
636,"['adobe', 'mac', 'google', 'cisco', 'internet']"
637,"['firefox', 'flash', 'adobe', 'iphone']"
638,"['windows', 'google', 'firefox', 'apple']"
639,"['google', 'cisco', 'windows', 'flash', 'android', 'microsoft']"
640,"['mozilla', 'cisco', 'ibm', 'chrome', 'flash', 'windows', 'mac', 'oracle']"
641,"['oracle', 'windows', 'google', 'firefox', 'chrome']"
642,"['windows', 'adobe', 'mac', 'cisco', 'microsoft']"
643,"['adobe', 'cisco', 'apple', 'internet']"
644,"['firefox', 'mozilla', 'google', 'internet']"
645,"['acrobat', 'internet', 'firefox', 'microsoft', 'iphone']"
646,"['oracle', 'windows', 'mozilla']"
647,"['adobe', 'windows', 'chrome', 'mac', 'cisco', 'acrobat']"
648,"['cisco', 'apple', 'firefox', 'windows', 'chrome', 'internet', 'oracle', 'adobe']"
649,"['ibm', 'chrome', 'mozilla', 'mac', 'microsoft', 'apple']"
650,"['windows', 'flash', 'adobe']"
651,"['mac', 'flash', 'adobe', 'apple']"
652,"['flash', 'cisco', 'microsoft', 'apple']"
653,"['windows', 'flash', 'apple']"
654,"['apple', 'chrome', 'mac', 'iphone', 'internet', 'acrobat']"
655,"['cisco', 'mac', 'adobe', 'apple']"
656,"['oracle', 'windows', 'mac', 'flash', 'microsoft']"
657,"['oracle', 'windows', 'android', 'cisco', 'ios']"
658,"['cisco', 'apple', 'iphone']"
659,"['oracle', 'mac', 'cisco', 'apple', 'ibm']"
660,"['windows', 'adobe', 'mozilla', 'cisco', 'apple']"
661,"['mac', 'cisco', 'ibm', 'emc', 'internet']"
662,"['google', 'cisco', 'apple', 'flash', 'android', 'acrobat']"
663,"['mac', 'flash', 'adobe']"
664,"['adobe', 'internet']"
665,"['windows', 'mozilla', 'microsoft', 'internet']"
666,"['cisco', 'apple', 'windows', 'hp', 'mac', 'internet', 'android', 'acrobat']"
667,"['cisco', 'chrome', 'flash', 'mac', 'oracle', 'android']"
668,"['oracle', 'firefox', 'android', 'adobe', 'internet']"
669,"['chrome', 'ios', 'mac', 'adobe', 'apple']"
670,"['firefox', 'apple', 'flash', 'mac', 'internet', 'acrobat']"
671,"['mac', 'adobe', 'apple', 'internet']"
672,"['google', 'cisco', 'ios', 'internet', 'android', 'acrobat']"
673,"['ibm', 'chrome', 'flash', 'ios', 'internet', 'apple']"
674,"['android', 'google', 'internet', 'apple', 'microsoft']"
675,"['windows', 'flash', 'ios', 'apple', 'internet']"
676,"['cisco', 'ibm', 'flash', 'ios', 'mac', 'firefox']"
677,"['oracle', 'windows', 'mozilla', 'firefox', 'microsoft']"
678,"['windows', 'mac', 'firefox', 'apple', 'acrobat']"
679,"['flash', 'firefox', 'apple', 'ibm', 'microsoft']"
680,"['firefox', 'google', 'adobe', 'internet']"
681,"['firefox', 'chrome', 'flash', 'mac', 'oracle', 'acrobat']"
682,"['firefox', 'apple', 'chrome', 'flash', 'microsoft', 'oracle', 'acrobat']"
683,"['windows', 'hp', 'iphone', 'internet', 'oracle', 'android', 'acrobat']"
684,"['mac', 'flash', 'adobe', 'internet']"
685,"['internet', 'ibm', 'apple']"
686,"['iphone', 'apple', 'internet']"
687,"['iphone', 'cisco', 'ibm', 'microsoft']"
688,"['cisco', 'ibm', 'chrome', 'flash', 'ios', 'internet']"
689,"['adobe', 'windows', 'flash', 'mac', 'iphone', 'oracle']"
690,"['google', 'cisco', 'flash', 'ios', 'oracle', 'firefox', 'acrobat']"
691,"['firefox', 'ibm', 'windows', 'flash', 'iphone', 'cisco']"
692,"['adobe', 'apple', 'windows', 'flash', 'iphone', 'oracle', 'firefox', 'microsoft']"
693,"['mac', 'acrobat', 'adobe', 'apple', 'microsoft']"
694,"['flash', 'iphone', 'microsoft', 'internet']"
695,"['firefox', 'mac', 'adobe', 'internet']"
696,"['flash', 'google', 'cisco', 'ibm']"
697,"['firefox', 'apple', 'windows', 'mac', 'internet', 'ibm']"
698,"['google', 'firefox', 'apple', 'chrome', 'flash', 'internet', 'oracle', 'acrobat']"
699,"['oracle', 'cisco', 'internet']"
700,"['mac', 'cisco', 'apple']"
701,"['flash', 'firefox', 'google', 'cisco', 'apple']"
702,"['firefox', 'apple', 'mozilla', 'iphone', 'oracle', 'ibm']"
703,"['firefox', 'flash', 'ios', 'apple']"
704,"['cisco', 'ibm', 'emc', 'internet']"
705,"['adobe', 'chrome', 'flash', 'microsoft', 'mac', 'internet', 'acrobat']"
706,"['google', 'adobe', 'apple', 'flash', 'internet', 'oracle', 'ibm']"
707,"['emc', 'windows', 'flash', 'mac', 'internet', 'android']"
708,"['windows', 'flash', 'mac', 'iphone', 'internet', 'oracle', 'microsoft']"
709,"['chrome', 'apple']"
710,"['google', 'apple', 'emc', 'chrome', 'flash', 'oracle', 'ibm']"
711,"['mac', 'firefox', 'ibm', 'acrobat']"
712,"['google', 'cisco', 'windows', 'flash', 'ios', 'iphone', 'adobe', 'acrobat']"
713,"['windows', 'firefox', 'flash', 'adobe', 'apple']"
714,"['adobe', 'mac', 'iphone', 'internet', 'oracle', 'cisco', 'microsoft']"
715,"['windows', 'hp', 'acrobat', 'microsoft', 'apple']"
716,"['google', 'cisco', 'apple', 'chrome', 'flash', 'android', 'microsoft', 'ibm']"
717,"['ibm', 'hp', 'ios', 'iphone', 'android', 'microsoft']"
718,"['google', 'cisco', 'apple', 'flash', 'mac', 'iphone', 'oracle', 'adobe']"
719,"['adobe', 'acrobat', 'internet', 'cisco', 'android', 'microsoft']"
720,"['adobe', 'mac', 'cisco']"
721,"['google', 'cisco', 'apple', 'mac', 'internet', 'acrobat']"
722,"['apple', 'windows', 'flash', 'microsoft', 'mac', 'android', 'acrobat']"
723,"['cisco', 'apple', 'flash', 'mac', 'internet', 'oracle', 'microsoft']"
724,"['google', 'cisco', 'flash', 'ios', 'iphone', 'internet', 'mozilla']"
725,"['apple', 'windows', 'iphone', 'internet', 'oracle', 'microsoft', 'ibm']"
726,"['mac', 'iphone', 'apple', 'acrobat']"
727,"['windows', 'iphone', 'apple', 'internet']"
728,"['firefox', 'ios', 'microsoft', 'emc']"
729,"['oracle', 'mac', 'android', 'apple', 'acrobat']"
730,"['cisco', 'apple', 'flash', 'microsoft', 'iphone', 'acrobat']"
731,"['cisco', 'chrome', 'mac', 'iphone', 'oracle', 'adobe', 'android', 'acrobat']"
732,"['adobe', 'firefox', 'windows', 'ios', 'oracle', 'cisco']"
733,"['flash', 'apple', 'adobe', 'ibm', 'microsoft']"
734,"['flash', 'cisco']"
735,"['adobe', 'ibm', 'windows', 'mac', 'internet', 'acrobat']"
736,"['microsoft', 'acrobat']"
737,"['chrome', 'firefox', 'cisco', 'microsoft']"
738,"['google', 'adobe', 'ios', 'mac', 'iphone', 'oracle', 'android', 'microsoft']"
739,"['cisco', 'apple', 'mozilla', 'mac', 'iphone', 'adobe', 'acrobat']"
740,"['mac', 'ibm']"
741,"['google', 'adobe', 'windows', 'flash', 'mac', 'iphone', 'firefox', 'microsoft']"
742,"['firefox', 'apple', 'mac', 'iphone', 'cisco', 'acrobat']"
743,"['oracle', 'acrobat', 'firefox', 'microsoft', 'apple']"
744,"['windows', 'adobe', 'apple']"
745,"['windows', 'android', 'ios', 'microsoft', 'iphone']"
746,"['chrome', 'microsoft']"
747,"['apple', 'windows', 'flash', 'mac', 'oracle', 'android']"
748,"['flash', 'mac', 'mozilla', 'apple']"
749,"['internet', 'flash', 'ios', 'ibm', 'microsoft']"
750,"['oracle', 'flash', 'google', 'adobe']"
751,"['google', 'cisco', 'ibm', 'windows', 'chrome', 'internet', 'android', 'microsoft']"
752,"['oracle', 'flash', 'adobe', 'microsoft', 'ibm']"
753,"['windows', 'android', 'mozilla', 'apple', 'internet']"
754,"['oracle', 'flash', 'cisco', 'apple', 'microsoft']"
755,"['flash', 'apple', 'ibm', 'microsoft']"
756,"['oracle', 'ios', 'adobe', 'microsoft', 'emc']"
757,"['chrome', 'firefox', 'flash', 'cisco', 'ibm']"
758,"['mac', 'adobe', 'microsoft', 'apple']"
759,"['cisco', 'ibm', 'flash', 'iphone', 'internet', 'android', 'microsoft']"
760,"['cisco', 'apple', 'windows', 'flash', 'oracle', 'adobe']"
761,"['chrome', 'google', 'cisco', 'microsoft']"
762,"['windows', 'cisco']"
763,"['mac', 'cisco', 'microsoft']"
764,"['oracle', 'cisco', 'iphone']"
765,"['ibm', 'chrome', 'ios', 'mac', 'iphone', 'android']"
766,"['adobe', 'ibm', 'chrome', 'flash', 'ios', 'windows', 'mac']"
767,"['mac', 'flash', 'adobe', 'apple']"
768,"['flash', 'google', 'cisco', 'apple', 'ibm']"
769,"['firefox', 'apple', 'mozilla', 'oracle', 'cisco', 'ibm']"
770,"['chrome', 'flash', 'google', 'ibm']"
771,"['flash', 'apple', 'internet']"
772,"['ibm', 'windows', 'flash', 'ios', 'mac', 'acrobat']"
773,"['windows', 'flash', 'ibm', 'internet']"
774,"['firefox', 'cisco', 'ibm', 'acrobat']"
775,"['flash', 'apple', 'microsoft']"
776,"['flash', 'mac', 'google', 'cisco', 'internet']"
777,"['mac', 'google']"
778,"['chrome', 'mac', 'cisco']"
779,"['mozilla', 'cisco', 'apple', 'flash', 'mac', 'microsoft']"
780,"['windows', 'adobe', 'apple']"
781,"['chrome', 'microsoft']"
782,"['google', 'ibm', 'windows', 'mac', 'internet', 'android', 'microsoft']"
783,"['cisco', 'chrome', 'hp', 'mozilla', 'mac', 'internet', 'adobe']"
784,"['google', 'adobe', 'apple', 'windows', 'internet', 'cisco']"
785,"['mozilla', 'firefox', 'internet']"
786,"['ibm', 'windows', 'acrobat', 'mac', 'iphone', 'internet', 'oracle', 'microsoft']"
787,"['google', 'cisco', 'ibm', 'windows', 'flash', 'ios', 'internet', 'oracle', 'acrobat']"
788,"['google', 'adobe', 'ibm', 'flash', 'ios', 'mac']"
789,"['windows', 'ios', 'adobe', 'ibm', 'internet']"
790,"['flash', 'mac', 'mozilla', 'adobe', 'apple']"
791,"['mac', 'apple', 'acrobat']"
792,"['google', 'firefox', 'apple', 'chrome', 'mac', 'internet', 'ibm']"
793,"['google', 'firefox', 'apple', 'flash', 'mac', 'oracle', 'microsoft']"
794,"['ibm', 'chrome', 'flash', 'windows', 'internet', 'microsoft']"
795,"['google', 'cisco', 'ibm', 'flash', 'internet', 'oracle']"
796,"['apple', 'windows', 'chrome', 'iphone', 'oracle', 'android']"
797,"['android', 'flash', 'firefox', 'microsoft']"
798,"['cisco', 'adobe', 'apple', 'ios', 'internet']"
799,"['google', 'cisco', 'ibm', 'windows', 'flash', 'mac', 'internet']"
800,"['google', 'adobe', 'apple', 'flash', 'ios', 'oracle', 'firefox', 'microsoft']"
801,"['windows', 'flash', 'adobe', 'microsoft', 'apple']"
802,"['windows', 'android', 'mozilla', 'cisco', 'mac']"
803,"['google', 'firefox', 'flash', 'iphone', 'internet', 'microsoft']"
804,"['oracle', 'chrome', 'flash', 'ios']"
805,"['google', 'cisco', 'ibm', 'internet', 'adobe', 'android']"
806,"['chrome', 'firefox', 'emc']"
807,"['adobe', 'flash', 'ios', 'iphone', 'cisco', 'microsoft']"
808,"['mozilla', 'firefox', 'apple', 'flash', 'cisco', 'microsoft']"
809,"['firefox', 'ibm']"
810,"['google', 'firefox', 'ibm', 'windows', 'oracle', 'cisco', 'acrobat']"
811,"['oracle', 'chrome', 'flash', 'ios', 'internet']"
812,"['google', 'firefox', 'apple', 'flash', 'microsoft', 'internet', 'cisco', 'acrobat']"
813,"['adobe', 'apple', 'flash', 'ios', 'mac', 'internet', 'android']"
814,"['oracle', 'ios', 'google', 'adobe']"
815,"['adobe', 'apple', 'flash', 'oracle', 'android', 'acrobat']"
816,"['flash', 'google', 'ibm', 'iphone']"
817,"['mozilla', 'google', 'firefox', 'android', 'internet']"
818,"['chrome', 'windows', 'mozilla', 'adobe', 'ibm']"
819,"['oracle', 'firefox', 'google', 'cisco', 'apple']"
820,"['flash', 'google', 'acrobat', 'internet']"
821,"['cisco', 'ibm', 'flash', 'iphone', 'internet', 'microsoft', 'apple']"
822,"['adobe', 'apple', 'mozilla', 'mac', 'iphone', 'oracle']"
823,"['cisco', 'flash', 'adobe']"
824,"['chrome', 'android', 'mac', 'emc', 'acrobat']"
825,"['cisco', 'ibm', 'windows', 'flash', 'internet', 'adobe', 'android']"
826,"['ios', 'mac', 'cisco', 'iphone']"
827,"['oracle', 'chrome', 'mac', 'microsoft', 'android']"
828,"['mac', 'microsoft', 'ibm', 'apple']"
829,"['oracle', 'mac', 'flash', 'microsoft']"
830,"['ibm', 'windows', 'hp', 'flash', 'chrome', 'oracle', 'microsoft']"
831,"['cisco', 'windows', 'oracle', 'firefox', 'android', 'acrobat']"
832,"['firefox', 'hp', 'cisco', 'microsoft', 'android']"
833,"['chrome', 'flash', 'cisco', 'microsoft', 'ibm']"
834,"['chrome', 'apple', 'internet']"
835,"['mozilla', 'firefox', 'iphone']"
836,"['firefox', 'emc', 'windows', 'flash', 'chrome', 'iphone', 'adobe', 'microsoft']"
837,"['firefox', 'apple', 'flash', 'iphone', 'internet', 'adobe', 'ibm']"
838,"['ios', 'adobe', 'apple', 'ibm']"
839,"['windows', 'android', 'adobe', 'apple']"
840,"['android', 'flash', 'adobe', 'mac']"
841,"['chrome', 'cisco', 'adobe']"
842,"['google', 'adobe', 'ibm', 'chrome', 'flash', 'mac', 'oracle', 'android', 'microsoft']"
843,"['ibm', 'internet']"
844,"['windows', 'android', 'microsoft']"
845,"['google', 'ios', 'microsoft', 'emc', 'ibm']"
846,"['chrome', 'firefox', 'microsoft', 'internet']"
847,"['hp', 'flash', 'cisco']"
848,"['firefox', 'adobe', 'acrobat']"
849,"['windows', 'google', 'microsoft', 'internet']"
850,"['windows', 'mozilla', 'adobe', 'microsoft']"
851,"['flash', 'adobe', 'microsoft', 'internet']"
852,"['oracle', 'android', 'flash', 'ibm', 'microsoft']"
853,"['mac', 'cisco', 'apple']"
854,"['oracle', 'firefox', 'apple', 'internet']"
855,"['oracle', 'flash']"
856,"['cisco', 'chrome', 'flash', 'acrobat', 'mac', 'adobe', 'microsoft']"
857,"['oracle', 'flash', 'apple']"
858,"['oracle', 'mozilla', 'adobe', 'ibm', 'iphone']"
859,"['cisco', 'flash', 'adobe', 'microsoft', 'iphone']"
860,"['firefox', 'mac', 'flash', 'ios', 'apple']"
861,"['adobe', 'internet']"
862,"['chrome', 'android', 'apple', 'microsoft']"
863,"['oracle', 'windows', 'mozilla', 'ios']"
864,"['cisco', 'apple', 'hp', 'iphone', 'adobe', 'android', 'acrobat']"
865,"['oracle', 'firefox', 'internet']"
866,"['flash', 'google', 'cisco', 'ibm', 'apple']"
867,"['adobe', 'apple', 'ios', 'internet', 'oracle', 'android']"
868,"['chrome', 'android', 'microsoft', 'apple']"
869,"['oracle', 'ios', 'android', 'adobe', 'firefox']"
870,"['flash', 'microsoft']"
871,"['google', 'microsoft', 'iphone']"
872,"['oracle', 'chrome', 'flash', 'apple', 'iphone']"
873,"['firefox', 'mozilla', 'cisco', 'ibm', 'internet']"
874,"['firefox', 'flash', 'mac', 'internet', 'adobe', 'microsoft']"
875,"['windows', 'chrome', 'google', 'cisco', 'internet']"
876,"['cisco', 'ibm', 'windows', 'flash', 'ios', 'iphone', 'internet']"
877,"['google', 'apple', 'windows', 'flash', 'ios', 'oracle', 'microsoft', 'ibm']"
878,"['android', 'mozilla', 'cisco', 'apple']"
879,"['flash', 'iphone', 'emc', 'internet']"
880,"['google', 'cisco', 'apple', 'ios', 'mac', 'internet']"
881,"['flash', 'ibm', 'chrome', 'mozilla', 'mac', 'internet', 'oracle', 'microsoft']"
882,"['cisco', 'ibm', 'mozilla', 'iphone', 'oracle', 'acrobat']"
883,"['oracle', 'chrome', 'cisco', 'ios']"
884,"['oracle', 'windows', 'android', 'mac', 'ibm']"
885,"['flash', 'google']"
886,"['chrome', 'android', 'cisco', 'mac']"
887,"['cisco', 'emc', 'ios', 'mac', 'internet', 'oracle', 'firefox', 'microsoft']"
888,"['oracle', 'android', 'ios', 'mac']"
889,"['cisco', 'android', 'adobe', 'apple']"
890,"['windows', 'flash', 'android', 'google', 'ios']"
891,"['firefox', 'apple', 'emc', 'windows', 'iphone', 'acrobat']"
892,"['mac', 'flash', 'firefox', 'apple', 'acrobat']"
893,"['windows', 'flash', 'cisco', 'apple', 'acrobat']"
894,"['google', 'emc', 'windows', 'mac', 'iphone', 'internet', 'microsoft']"
895,"['google', 'adobe', 'chrome', 'mac', 'internet', 'oracle', 'cisco', 'microsoft']"
896,"['oracle', 'chrome', 'adobe', 'apple']"
897,"['windows', 'cisco', 'acrobat', 'iphone']"
898,"['cisco', 'apple', 'firefox', 'internet', 'oracle', 'adobe', 'android', 'microsoft']"
899,"['chrome', 'mac', 'apple']"
900,"['windows', 'mac', 'apple', 'ibm', 'microsoft']"
901,"['adobe', 'apple', 'windows', 'iphone', 'internet', 'oracle', 'firefox', 'ibm']"
902,"['cisco', 'mozilla', 'acrobat', 'mac', 'internet', 'oracle', 'android', 'microsoft']"
903,"['oracle', 'adobe', 'cisco', 'firefox', 'internet']"
904,"['windows', 'firefox', 'android', 'adobe', 'internet']"
905,"['flash', 'firefox', 'apple']"
906,"['cisco', 'ibm', 'mozilla', 'mac', 'iphone', 'internet', 'firefox', 'android', 'microsoft']"
907,"['ios', 'flash', 'adobe', 'ibm']"
908,"['oracle', 'flash', 'mozilla', 'microsoft', 'emc']"
909,"['mac', 'flash', 'apple', 'ibm']"
910,"['mac', 'flash', 'microsoft', 'internet']"
911,"['flash', 'google', 'adobe', 'microsoft']"
912,"['ios', 'ibm']"
913,"['cisco', 'chrome', 'flash', 'microsoft', 'windows', 'internet', 'acrobat']"
914,"['chrome', 'microsoft', 'iphone']"
915,"['mac', 'flash', 'adobe', 'ibm', 'iphone']"
916,"['adobe', 'apple', 'windows', 'flash', 'internet', 'ibm']"
917,"['mozilla', 'cisco', 'ibm', 'chrome', 'flash', 'adobe']"
918,"['adobe', 'apple', 'chrome', 'mac', 'iphone', 'internet', 'acrobat']"
919,"['apple', 'flash', 'microsoft', 'mac', 'oracle', 'acrobat']"
920,"['oracle', 'flash', 'google', 'cisco']"
921,"['oracle', 'internet', 'microsoft', 'apple']"
922,"['cisco', 'apple', 'flash', 'mac', 'internet', 'acrobat']"
923,"['mac', 'apple']"
924,"['flash', 'cisco', 'acrobat']"
925,"['chrome', 'windows', 'apple']"
926,"['flash', 'google', 'ibm', 'windows', 'mozilla', 'chrome', 'acrobat']"
927,"['acrobat', 'mozilla', 'adobe', 'microsoft', 'apple']"
928,"['firefox', 'adobe', 'microsoft', 'apple']"
929,"['oracle', 'windows', 'mac', 'flash', 'apple']"
930,"['adobe', 'apple', 'mozilla', 'iphone', 'internet', 'android', 'microsoft', 'ibm']"
931,"['chrome', 'cisco', 'google', 'mozilla', 'adobe']"
932,"['chrome', 'windows', 'flash', 'adobe']"
933,"['chrome', 'microsoft']"
934,"['oracle', 'flash', 'acrobat', 'emc', 'internet']"
935,"['apple', 'internet']"
936,"['mac', 'google', 'ios', 'microsoft', 'internet']"
937,"['apple', 'windows', 'hp', 'microsoft', 'mac', 'internet', 'acrobat']"
938,"['windows', 'hp', 'chrome', 'mac', 'internet', 'oracle', 'microsoft']"
939,"['google', 'firefox', 'apple', 'internet', 'cisco', 'android']"
940,"['oracle', 'cisco', 'mac', 'adobe']"
941,"['mac', 'flash', 'firefox', 'ibm']"
942,"['mac', 'adobe', 'microsoft', 'apple']"
943,"['mozilla', 'internet']"
944,"['android', 'acrobat', 'adobe', 'microsoft', 'internet']"
945,"['oracle', 'mac', 'flash', 'microsoft']"
946,"['windows', 'cisco', 'apple', 'internet']"
947,"['chrome', 'internet', 'apple', 'acrobat']"
948,"['windows', 'microsoft', 'acrobat']"
949,"['mac', 'iphone', 'adobe', 'microsoft', 'apple']"
950,"['emc', 'windows', 'mac', 'iphone', 'oracle', 'android']"
951,"['firefox', 'mac', 'adobe', 'microsoft', 'internet']"
952,"['cisco', 'emc', 'mac', 'iphone', 'internet', 'oracle', 'android', 'microsoft']"
953,"['android', 'cisco', 'microsoft', 'acrobat']"
954,"['windows', 'firefox', 'flash', 'adobe', 'apple']"
955,"['adobe', 'apple', 'windows', 'internet', 'android', 'microsoft']"
956,"['chrome', 'hp', 'flash', 'adobe', 'acrobat']"
957,"['flash', 'apple', 'windows', 'mozilla', 'mac', 'iphone', 'oracle', 'ibm']"
958,"['google', 'apple', 'flash', 'iphone', 'android', 'acrobat']"
959,"['cisco', 'chrome', 'mac', 'iphone', 'adobe', 'acrobat']"
960,"['chrome', 'flash', 'android', 'mozilla']"
961,"['cisco', 'apple', 'chrome', 'acrobat', 'mac', 'internet', 'microsoft']"
962,"['google', 'adobe', 'apple', 'flash', 'iphone', 'internet', 'cisco', 'microsoft']"
963,"['oracle', 'chrome', 'flash', 'apple']"
964,"['android', 'flash', 'microsoft', 'iphone']"
965,"['firefox', 'chrome', 'mozilla', 'windows', 'oracle', 'microsoft']"
966,"['firefox', 'adobe', 'iphone', 'internet']"
967,"['flash', 'adobe', 'acrobat', 'internet']"
968,"['adobe', 'apple', 'chrome', 'mac', 'internet', 'cisco', 'microsoft']"
969,"['firefox', 'ibm', 'flash', 'internet', 'cisco', 'apple']"
970,"['google', 'firefox', 'microsoft']"
971,"['mozilla', 'cisco', 'windows', 'flash', 'adobe', 'microsoft']"
972,"['chrome', 'firefox', 'ibm']"
973,"['cisco', 'ibm', 'emc', 'ios', 'mac', 'acrobat']"
974,"['adobe', 'chrome', 'flash', 'oracle', 'android', 'microsoft']"
975,"['chrome', 'flash', 'adobe', 'iphone']"
976,"['hp', 'iphone', 'internet']"
977,"['oracle', 'mac', 'adobe', 'microsoft', 'apple']"
978,"['mozilla', 'firefox', 'apple', 'flash', 'mac', 'microsoft']"
979,"['adobe', 'apple', 'windows', 'acrobat', 'oracle', 'firefox', 'microsoft', 'ibm']"
980,"['acrobat', 'apple', 'internet']"
981,"['google', 'adobe', 'apple', 'windows', 'flash', 'oracle']"
982,"['chrome', 'windows', 'hp', 'acrobat', 'internet']"
983,"['windows', 'mozilla', 'cisco', 'apple', 'internet']"
984,"['cisco', 'mac', 'flash', 'adobe', 'microsoft']"
985,"['oracle', 'firefox', 'android', 'cisco', 'ios']"
986,"['windows', 'mac', 'flash', 'apple']"
987,"['google', 'cisco', 'ibm', 'windows', 'flash', 'internet', 'adobe']"
988,"['windows', 'cisco', 'adobe', 'apple', 'firefox']"
989,"['flash', 'cisco']"
990,"['oracle', 'cisco', 'android', 'adobe']"
991,"['google', 'firefox', 'mac', 'iphone', 'internet', 'cisco']"
992,"['adobe', 'apple', 'chrome', 'windows', 'iphone', 'internet', 'cisco', 'microsoft']"
993,"['ibm', 'windows', 'flash', 'internet', 'oracle', 'microsoft']"
994,"['firefox', 'apple', 'windows', 'mac', 'iphone', 'cisco', 'android']"
995,"['chrome', 'android', 'firefox', 'apple', 'acrobat']"
996,"['flash', 'mac', 'mozilla']"
997,"['firefox', 'hp', 'adobe']"
998,"['google', 'apple', 'windows', 'mac', 'internet', 'acrobat', 'ibm']"
999,"['oracle', 'flash']"
1000,"['cisco', 'ibm', 'chrome', 'flash', 'internet', 'oracle', 'microsoft']"
